123.0
146.0
171.0
208.0
238.0
265.0
272.0
282.0
287.0
293.0
298.0
309.0
313.0
306.0
308.0
310.0
309.0
312.0
312.0
316.0
317.0
325.0
330.0
334.0
339.0
343.0
345.0
349.0
351.0
355.0
356.0
351.0
348.0
351.0
346.0
350.0
357.0
362.0
366.0
370.0
411.0
420.0
434.0
454.0
479.0
509.0
544.0
576.0
617.0
670.0
717.0
759.0
799.0
830.0
857.0
876.0
896.0
906.0
909.0
896.0
887.0
874.0
860.0
841.0
822.0
798.0
768.0
736.0
719.0
693.0
667.0
634.0
606.0
575.0
548.0
520.0
501.0
482.0
452.0
423.0
402.0
382.0
366.0
349.0
335.0
320.0
302.0
284.0
279.0
274.0
271.0
268.0
269.0
271.0
276.0
283.0
293.0
305.0
320.0
334.0
349.0
365.0
380.0
395.0
409.0
423.0
440.0
453.0
461.0
469.0
478.0
488.0
495.0
504.0
509.0
514.0
513.0
515.0
513.0
519.0
526.0
526.0
522.0
518.0
511.0
506.0
498.0
500.0
498.0
489.0
472.0
466.0
458.0
453.0
448.0
444.0
440.0
430.0
432.0
436.0
431.0
428.0
423.0
421.0
417.0
416.0
417.0
425.0
411.0
404.0
401.0
402.0
402.0
405.0
406.0
407.0
403.0
397.0
398.0
415.0
420.0
423.0
424.0
424.0
425.0
427.0
429.0
433.0
442.0
431.0
430.0
431.0
434.0
437.0
441.0
444.0
452.0
453.0
454.0
460.0
471.0
488.0
510.0
538.0
573.0
610.0
649.0
693.0
736.0
784.0
830.0
865.0
896.0
915.0
931.0
938.0
942.0
942.0
936.0
918.0
900.0
879.0
859.0
835.0
810.0
782.0
754.0
718.0
694.0
665.0
635.0
603.0
574.0
543.0
516.0
488.0
469.0
446.0
422.0
395.0
375.0
355.0
338.0
321.0
307.0
294.0
280.0
269.0
258.0
253.0
253.0
255.0
260.0
268.0
277.0
289.0
299.0
318.0
338.0
356.0
373.0
392.0
409.0
427.0
444.0
461.0
474.0
485.0
492.0
507.0
518.0
527.0
531.0
536.0
537.0
539.0
536.0
546.0
544.0
538.0
529.0
525.0
518.0
514.0
505.0
503.0
497.0
484.0
478.0
473.0
466.0
461.0
455.0
451.0
446.0
440.0
434.0
429.0
421.0
425.0
426.0
425.0
421.0
419.0
415.0
413.0
411.0
423.0
424.0
417.0
411.0
409.0
409.0
408.0
408.0
412.0
414.0
402.0
401.0
401.0
402.0
403.0
405.0
407.0
411.0
410.0
414.0
416.0
420.0
434.0
441.0
443.0
449.0
449.0
454.0
455.0
459.0
473.0
479.0
470.0
472.0
474.0
477.0
479.0
483.0
489.0
497.0
490.0
502.0
516.0
539.0
566.0
601.0
639.0
683.0
723.0
770.0
813.0
853.0
891.0
924.0
945.0
959.0
964.0
964.0
956.0
944.0
934.0
919.0
893.0
867.0
839.0
813.0
785.0
756.0
732.0
702.0
665.0
633.0
603.0
571.0
540.0
508.0
479.0
451.0
419.0
399.0
379.0
355.0
336.0
318.0
304.0
289.0
279.0
267.0
260.0
246.0
241.0
235.0
244.0
251.0
260.0
269.0
283.0
296.0
319.0
337.0
358.0
379.0
395.0
410.0
430.0
448.0
467.0
483.0
502.0
517.0
531.0
545.0
556.0
563.0
569.0
572.0
574.0
573.0
565.0
557.0
554.0
541.0
535.0
534.0
531.0
524.0
518.0
511.0
511.0
505.0
499.0
495.0
488.0
477.0
466.0
460.0
453.0
448.0
445.0
445.0
440.0
438.0
434.0
432.0
429.0
427.0
424.0
423.0
411.0
410.0
410.0
410.0
407.0
407.0
404.0
406.0
405.0
407.0
407.0
405.0
403.0
402.0
404.0
410.0
414.0
419.0
422.0
426.0
434.0
440.0
442.0
451.0
452.0
455.0
455.0
457.0
457.0
459.0
453.0
462.0
465.0
467.0
468.0
469.0
469.0
471.0
472.0
475.0
477.0
479.0
489.0
502.0
518.0
540.0
568.0
602.0
642.0
686.0
733.0
775.0
817.0
853.0
891.0
923.0
948.0
963.0
971.0
973.0
972.0
959.0
948.0
927.0
903.0
874.0
846.0
815.0
786.0
751.0
716.0
682.0
648.0
615.0
602.0
573.0
545.0
513.0
484.0
453.0
427.0
398.0
381.0
358.0
321.0
297.0
282.0
266.0
255.0
244.0
237.0
230.0
221.0
219.0
227.0
231.0
237.0
245.0
256.0
269.0
286.0
311.0
340.0
363.0
379.0
400.0
422.0
444.0
467.0
488.0
507.0
517.0
523.0
547.0
561.0
572.0
579.0
585.0
587.0
589.0
588.0
590.0
588.0
572.0
563.0
557.0
549.0
542.0
533.0
527.0
518.0
509.0
501.0
494.0
492.0
490.0
484.0
480.0
472.0
466.0
458.0
453.0
455.0
452.0
439.0
432.0
427.0
426.0
422.0
422.0
423.0
423.0
411.0
411.0
410.0
410.0
408.0
407.0
405.0
406.0
408.0
410.0
411.0
414.0
416.0
419.0
422.0
427.0
431.0
435.0
432.0
434.0
443.0
444.0
446.0
448.0
450.0
452.0
455.0
457.0
465.0
467.0
464.0
468.0
473.0
477.0
485.0
495.0
510.0
530.0
554.0
587.0
630.0
673.0
726.0
776.0
827.0
871.0
912.0
942.0
967.0
980.0
994.0
993.0
983.0
964.0
945.0
922.0
901.0
874.0
853.0
825.0
789.0
756.0
728.0
698.0
669.0
637.0
607.0
576.0
557.0
533.0
507.0
483.0
458.0
432.0
408.0
386.0
365.0
346.0
314.0
290.0
274.0
256.0
244.0
242.0
237.0
232.0
230.0
231.0
233.0
245.0
260.0
272.0
283.0
292.0
307.0
328.0
349.0
371.0
393.0
412.0
428.0
460.0
494.0
519.0
538.0
556.0
568.0
582.0
590.0
600.0
606.0
605.0
591.0
588.0
582.0
580.0
574.0
571.0
573.0
569.0
563.0
554.0
544.0
537.0
528.0
521.0
511.0
505.0
487.0
479.0
465.0
460.0
466.0
466.0
461.0
457.0
451.0
447.0
441.0
437.0
445.0
445.0
428.0
421.0
416.0
414.0
412.0
412.0
412.0
412.0
400.0
396.0
400.0
403.0
407.0
409.0
412.0
414.0
417.0
424.0
429.0
433.0
436.0
436.0
440.0
442.0
447.0
452.0
465.0
475.0
498.0
522.0
564.0
610.0
660.0
710.0
765.0
816.0
865.0
906.0
942.0
972.0
987.0
989.0
988.0
979.0
967.0
948.0
928.0
903.0
877.0
845.0
824.0
797.0
771.0
743.0
716.0
687.0
663.0
635.0
607.0
580.0
546.0
516.0
488.0
461.0
435.0
412.0
386.0
365.0
346.0
325.0
310.0
302.0
290.0
278.0
267.0
257.0
248.0
244.0
248.0
254.0
255.0
256.0
262.0
275.0
288.0
306.0
330.0
352.0
365.0
387.0
407.0
429.0
448.0
469.0
485.0
503.0
518.0
539.0
550.0
560.0
565.0
571.0
572.0
576.0
575.0
576.0
565.0
559.0
552.0
545.0
538.0
535.0
529.0
523.0
517.0
511.0
503.0
494.0
491.0
490.0
483.0
476.0
468.0
461.0
454.0
449.0
443.0
451.0
446.0
441.0
437.0
433.0
430.0
427.0
425.0
423.0
421.0
406.0
402.0
397.0
402.0
405.0
409.0
411.0
414.0
415.0
424.0
426.0
429.0
434.0
433.0
431.0
435.0
438.0
449.0
463.0
488.0
519.0
558.0
600.0
649.0
698.0
750.0
799.0
847.0
886.0
912.0
939.0
959.0
960.0
960.0
954.0
946.0
931.0
914.0
894.0
872.0
839.0
811.0
794.0
770.0
741.0
711.0
680.0
651.0
620.0
591.0
571.0
544.0
511.0
482.0
456.0
433.0
410.0
390.0
371.0
352.0
326.0
309.0
292.0
283.0
282.0
274.0
269.0
264.0
263.0
268.0
273.0
276.0
288.0
292.0
297.0
308.0
323.0
338.0
358.0
369.0
396.0
417.0
437.0
453.0
470.0
484.0
499.0
511.0
522.0
530.0
531.0
533.0
536.0
542.0
550.0
551.0
552.0
550.0
549.0
549.0
547.0
542.0
540.0
528.0
517.0
509.0
501.0
492.0
484.0
475.0
467.0
460.0
454.0
449.0
444.0
440.0
437.0
434.0
430.0
424.0
420.0
418.0
413.0
415.0
417.0
417.0
416.0
417.0
416.0
417.0
415.0
421.0
423.0
421.0
415.0
416.0
414.0
416.0
415.0
418.0
420.0
418.0
417.0
433.0
442.0
452.0
462.0
481.0
502.0
533.0
568.0
618.0
666.0
706.0
749.0
798.0
842.0
883.0
916.0
945.0
961.0
964.0
963.0
958.0
947.0
933.0
914.0
893.0
867.0
838.0
809.0
780.0
749.0
723.0
697.0
668.0
639.0
610.0
581.0
553.0
525.0
504.0
480.0
451.0
424.0
401.0
380.0
361.0
345.0
334.0
322.0
303.0
293.0
284.0
280.0
274.0
273.0
272.0
340.0
356.0
376.0
394.0
415.0
432.0
453.0
477.0
502.0
511.0
523.0
532.0
543.0
551.0
559.0
564.0
568.0
563.0
560.0
564.0
567.0
566.0
566.0
564.0
563.0
559.0
556.0
563.0
565.0
556.0
551.0
545.0
540.0
534.0
530.0
525.0
525.0
508.0
500.0
495.0
490.0
487.0
483.0
481.0
479.0
479.0
478.0
481.0
485.0
487.0
485.0
486.0
486.0
487.0
485.0
485.0
479.0
477.0
469.0
470.0
473.0
476.0
476.0
479.0
479.0
492.0
494.0
504.0
506.0
512.0
514.0
526.0
539.0
560.0
585.0
607.0
638.0
670.0
706.0
756.0
794.0
829.0
857.0
881.0
897.0
908.0
912.0
926.0
924.0
906.0
888.0
871.0
850.0
826.0
800.0
772.0
743.0
700.0
668.0
641.0
613.0
585.0
559.0
533.0
510.0
488.0
475.0
460.0
442.0
423.0
409.0
397.0
388.0
378.0
371.0
362.0
352.0
343.0
351.0
357.0
362.0
364.0
370.0
375.0
384.0
392.0
409.0
422.0
432.0
437.0
450.0
461.0
473.0
483.0
495.0
503.0
512.0
516.0
518.0
520.0
525.0
527.0
530.0
531.0
533.0
531.0
526.0
530.0
533.0
530.0
528.0
523.0
519.0
514.0
509.0
514.0
516.0
502.0
498.0
492.0
484.0
477.0
471.0
465.0
460.0
446.0
443.0
443.0
435.0
435.0
435.0
434.0
433.0
434.0
433.0
432.0
432.0
431.0
430.0
428.0
427.0
430.0
430.0
433.0
434.0
437.0
429.0
430.0
438.0
442.0
442.0
444.0
444.0
445.0
446.0
451.0
464.0
477.0
482.0
499.0
518.0
544.0
571.0
604.0
636.0
671.0
694.0
724.0
749.0
786.0
807.0
822.0
830.0
833.0
829.0
825.0
812.0
795.0
777.0
742.0
712.0
683.0
653.0
623.0
592.0
559.0
529.0
499.0
468.0
452.0
428.0
403.0
379.0
355.0
334.0
314.0
295.0
283.0
269.0
242.0
228.0
217.0
210.0
203.0
200.0
195.0
195.0
188.0
191.0
203.0
212.0
219.0
231.0
241.0
257.0
272.0
298.0
323.0
345.0
355.0
374.0
391.0
410.0
426.0
444.0
458.0
467.0
469.0
487.0
501.0
512.0
519.0
525.0
529.0
532.0
532.0
540.0
543.0
535.0
525.0
520.0
515.0
509.0
503.0
497.0
490.0
476.0
466.0
467.0
470.0
465.0
461.0
455.0
450.0
445.0
441.0
442.0
441.0
431.0
420.0
414.0
412.0
410.0
411.0
409.0
411.0
404.0
403.0
411.0
416.0
416.0
419.0
418.0
421.0
421.0
431.0
433.0
436.0
432.0
433.0
435.0
438.0
440.0
442.0
443.0
439.0
446.0
451.0
446.0
449.0
450.0
452.0
453.0
458.0
462.0
472.0
477.0
496.0
521.0
552.0
599.0
645.0
693.0
741.0
790.0
835.0
878.0
914.0
941.0
959.0
960.0
960.0
956.0
946.0
932.0
914.0
890.0
865.0
847.0
827.0
799.0
767.0
735.0
702.0
671.0
637.0
611.0
579.0
546.0
507.0
477.0
446.0
420.0
392.0
367.0
342.0
320.0
295.0
269.0
248.0
235.0
220.0
210.0
200.0
194.0
188.0
183.0
186.0
198.0
205.0
215.0
225.0
241.0
259.0
282.0
313.0
344.0
369.0
401.0
430.0
461.0
491.0
524.0
551.0
575.0
589.0
604.0
620.0
630.0
640.0
649.0
655.0
656.0
657.0
656.0
663.0
661.0
662.0
653.0
645.0
639.0
638.0
636.0
636.0
633.0
624.0
611.0
595.0
581.0
577.0
563.0
546.0
524.0
506.0
487.0
472.0
462.0
478.0
479.0
469.0
462.0
459.0
455.0
453.0
449.0
448.0
445.0
427.0
423.0
433.0
433.0
435.0
435.0
437.0
438.0
439.0
443.0
449.0
446.0
440.0
440.0
445.0
450.0
459.0
472.0
490.0
510.0
536.0
576.0
628.0
675.0
722.0
768.0
812.0
851.0
886.0
914.0
935.0
946.0
938.0
934.0
925.0
914.0
898.0
881.0
859.0
841.0
814.0
787.0
758.0
731.0
703.0
676.0
646.0
618.0
586.0
555.0
526.0
497.0
478.0
456.0
431.0
408.0
384.0
364.0
344.0
326.0
313.0
304.0
282.0
271.0
261.0
257.0
255.0
258.0
268.0
279.0
285.0
299.0
314.0
333.0
354.0
377.0
399.0
424.0
447.0
479.0
501.0
518.0
536.0
551.0
562.0
572.0
579.0
584.0
580.0
575.0
573.0
572.0
572.0
570.0
567.0
562.0
558.0
551.0
555.0
546.0
540.0
536.0
527.0
517.0
511.0
503.0
497.0
488.0
474.0
464.0
460.0
449.0
456.0
458.0
458.0
455.0
454.0
451.0
451.0
448.0
453.0
454.0
444.0
435.0
432.0
429.0
429.0
428.0
435.0
438.0
445.0
443.0
444.0
445.0
449.0
450.0
455.0
458.0
460.0
466.0
472.0
491.0
529.0
564.0
604.0
648.0
694.0
740.0
786.0
828.0
869.0
905.0
918.0
930.0
937.0
939.0
934.0
926.0
912.0
896.0
873.0
848.0
824.0
801.0
775.0
757.0
734.0
708.0
686.0
660.0
635.0
614.0
585.0
557.0
528.0
495.0
463.0
439.0
407.0
388.0
362.0
339.0
324.0
313.0
299.0
291.0
281.0
276.0
271.0
269.0
279.0
289.0
291.0
299.0
309.0
323.0
337.0
355.0
371.0
388.0
394.0
407.0
426.0
444.0
459.0
474.0
486.0
497.0
507.0
514.0
539.0
548.0
547.0
547.0
547.0
546.0
544.0
541.0
539.0
535.0
514.0
506.0
504.0
500.0
497.0
498.0
503.0
499.0
498.0
494.0
489.0
486.0
487.0
488.0
492.0
488.0
478.0
469.0
462.0
452.0
460.0
458.0
450.0
438.0
428.0
415.0
413.0
411.0
413.0
413.0
406.0
400.0
408.0
412.0
417.0
418.0
421.0
423.0
426.0
429.0
447.0
457.0
467.0
481.0
506.0
537.0
574.0
615.0
663.0
708.0
741.0
781.0
818.0
849.0
873.0
889.0
898.0
902.0
895.0
889.0
878.0
865.0
862.0
848.0
825.0
802.0
776.0
749.0
725.0
701.0
671.0
641.0
595.0
563.0
535.0
512.0
488.0
468.0
443.0
422.0
403.0
397.0
384.0
372.0
358.0
346.0
333.0
324.0
320.0
319.0
313.0
308.0
306.0
310.0
314.0
323.0
332.0
344.0
349.0
365.0
379.0
391.0
404.0
419.0
433.0
448.0
461.0
475.0
495.0
501.0
513.0
521.0
527.0
533.0
537.0
538.0
537.0
536.0
526.0
522.0
515.0
519.0
528.0
526.0
521.0
515.0
511.0
504.0
500.0
493.0
499.0
488.0
476.0
467.0
463.0
458.0
456.0
452.0
450.0
446.0
436.0
436.0
432.0
430.0
430.0
428.0
428.0
426.0
427.0
429.0
428.0
422.0
422.0
420.0
422.0
421.0
424.0
425.0
432.0
434.0
446.0
459.0
487.0
521.0
555.0
590.0
628.0
666.0
706.0
742.0
785.0
820.0
839.0
847.0
856.0
860.0
860.0
855.0
849.0
837.0
812.0
790.0
774.0
753.0
730.0
707.0
682.0
657.0
628.0
602.0
580.0
554.0
529.0
511.0
488.0
468.0
446.0
429.0
411.0
397.0
386.0
378.0
362.0
349.0
338.0
332.0
326.0
323.0
329.0
332.0
323.0
329.0
333.0
343.0
352.0
364.0
375.0
389.0
392.0
411.0
427.0
438.0
450.0
462.0
472.0
483.0
492.0
502.0
509.0
516.0
520.0
528.0
530.0
532.0
533.0
533.0
532.0
530.0
532.0
524.0
527.0
519.0
514.0
510.0
505.0
501.0
496.0
491.0
482.0
475.0
463.0
458.0
465.0
463.0
460.0
455.0
452.0
449.0
447.0
444.0
451.0
449.0
438.0
433.0
433.0
433.0
434.0
433.0
436.0
435.0
428.0
426.0
436.0
442.0
445.0
443.0
444.0
442.0
442.0
441.0
445.0
458.0
461.0
466.0
483.0
503.0
530.0
562.0
600.0
640.0
681.0
714.0
751.0
780.0
808.0
829.0
846.0
854.0
857.0
855.0
848.0
830.0
815.0
798.0
779.0
760.0
738.0
715.0
690.0
663.0
638.0
621.0
598.0
574.0
548.0
524.0
500.0
480.0
467.0
457.0
439.0
424.0
410.0
400.0
387.0
376.0
363.0
354.0
336.0
327.0
320.0
310.0
304.0
304.0
307.0
316.0
325.0
339.0
351.0
362.0
376.0
404.0
422.0
440.0
453.0
468.0
480.0
493.0
503.0
514.0
522.0
520.0
529.0
538.0
542.0
546.0
547.0
534.0
526.0
521.0
517.0
512.0
514.0
509.0
498.0
491.0
486.0
482.0
480.0
475.0
470.0
465.0
462.0
461.0
459.0
456.0
454.0
451.0
449.0
447.0
447.0
444.0
437.0
438.0
439.0
434.0
439.0
439.0
441.0
440.0
442.0
443.0
446.0
445.0
449.0
450.0
448.0
449.0
454.0
458.0
464.0
467.0
473.0
470.0
474.0
492.0
503.0
508.0
513.0
517.0
524.0
532.0
547.0
564.0
590.0
605.0
638.0
680.0
718.0
754.0
788.0
818.0
845.0
868.0
879.0
894.0
892.0
878.0
866.0
854.0
838.0
820.0
798.0
778.0
755.0
722.0
696.0
672.0
647.0
623.0
598.0
575.0
551.0
525.0
508.0
494.0
474.0
455.0
435.0
418.0
400.0
386.0
378.0
372.0
354.0
344.0
333.0
328.0
322.0
321.0
320.0
323.0
319.0
331.0
342.0
349.0
359.0
374.0
388.0
406.0
422.0
440.0
457.0
465.0
475.0
500.0
516.0
529.0
538.0
547.0
553.0
558.0
565.0
570.0
570.0
566.0
563.0
560.0
557.0
554.0
550.0
546.0
536.0
532.0
527.0
520.0
514.0
508.0
502.0
496.0
492.0
487.0
490.0
481.0
480.0
472.0
467.0
463.0
460.0
455.0
453.0
448.0
439.0
434.0
430.0
427.0
435.0
436.0
437.0
436.0
439.0
438.0
440.0
441.0
455.0
457.0
451.0
448.0
449.0
449.0
452.0
453.0
456.0
456.0
447.0
446.0
459.0
464.0
468.0
470.0
472.0
473.0
477.0
490.0
506.0
521.0
533.0
556.0
587.0
621.0
659.0
698.0
739.0
769.0
797.0
829.0
858.0
875.0
884.0
887.0
885.0
879.0
869.0
864.0
849.0
827.0
798.0
774.0
750.0
727.0
701.0
677.0
649.0
617.0
589.0
582.0
561.0
540.0
517.0
497.0
476.0
459.0
440.0
435.0
420.0
392.0
374.0
362.0
351.0
343.0
335.0
330.0
327.0
317.0
315.0
318.0
328.0
342.0
353.0
365.0
376.0
390.0
402.0
415.0
435.0
450.0
456.0
464.0
473.0
485.0
496.0
506.0
518.0
528.0
527.0
534.0
539.0
542.0
543.0
543.0
543.0
543.0
539.0
537.0
541.0
539.0
535.0
530.0
526.0
520.0
515.0
508.0
502.0
494.0
481.0
471.0
478.0
477.0
475.0
471.0
468.0
462.0
461.0
457.0
461.0
459.0
447.0
438.0
436.0
432.0
431.0
429.0
430.0
429.0
425.0
423.0
442.0
448.0
450.0
450.0
453.0
453.0
455.0
455.0
471.0
473.0
458.0
454.0
456.0
458.0
462.0
463.0
465.0
467.0
456.0
455.0
465.0
470.0
473.0
475.0
479.0
485.0
495.0
509.0
534.0
560.0
584.0
615.0
652.0
693.0
733.0
773.0
808.0
840.0
858.0
880.0
894.0
901.0
900.0
897.0
888.0
877.0
861.0
849.0
830.0
808.0
779.0
753.0
724.0
696.0
665.0
637.0
607.0
578.0
549.0
529.0
507.0
490.0
469.0
451.0
433.0
419.0
403.0
387.0
379.0
364.0
351.0
340.0
332.0
329.0
325.0
325.0
325.0
328.0
326.0
331.0
346.0
357.0
366.0
377.0
389.0
401.0
414.0
427.0
446.0
462.0
468.0
478.0
489.0
499.0
508.0
515.0
522.0
527.0
525.0
529.0
533.0
533.0
534.0
532.0
531.0
529.0
528.0
530.0
530.0
521.0
514.0
508.0
505.0
499.0
495.0
488.0
485.0
473.0
465.0
471.0
481.0
478.0
476.0
471.0
468.0
463.0
460.0
456.0
461.0
447.0
433.0
428.0
427.0
426.0
427.0
428.0
430.0
430.0
425.0
424.0
437.0
439.0
440.0
440.0
440.0
439.0
438.0
438.0
441.0
449.0
442.0
444.0
447.0
451.0
454.0
458.0
462.0
472.0
475.0
471.0
474.0
477.0
478.0
479.0
481.0
484.0
485.0
483.0
484.0
497.0
496.0
498.0
498.0
503.0
504.0
509.0
515.0
529.0
542.0
558.0
583.0
617.0
653.0
693.0
732.0
774.0
810.0
842.0
868.0
888.0
908.0
922.0
922.0
918.0
907.0
895.0
879.0
861.0
844.0
824.0
790.0
758.0
729.0
702.0
673.0
645.0
614.0
585.0
552.0
522.0
508.0
486.0
464.0
442.0
422.0
403.0
387.0
371.0
366.0
357.0
334.0
320.0
311.0
303.0
298.0
293.0
292.0
292.0
288.0
289.0
302.0
314.0
328.0
341.0
358.0
373.0
398.0
417.0
441.0
458.0
471.0
482.0
498.0
511.0
526.0
536.0
544.0
553.0
555.0
556.0
562.0
562.0
563.0
559.0
556.0
551.0
544.0
532.0
528.0
524.0
520.0
514.0
510.0
506.0
502.0
500.0
505.0
512.0
518.0
510.0
501.0
490.0
481.0
472.0
465.0
455.0
439.0
421.0
405.0
409.0
415.0
416.0
417.0
417.0
416.0
415.0
414.0
417.0
422.0
417.0
411.0
413.0
413.0
416.0
418.0
422.0
423.0
425.0
421.0
430.0
436.0
441.0
442.0
446.0
448.0
453.0
454.0
464.0
470.0
469.0
466.0
470.0
472.0
476.0
478.0
481.0
483.0
480.0
477.0
490.0
501.0
506.0
506.0
507.0
506.0
506.0
504.0
507.0
515.0
509.0
502.0
509.0
522.0
542.0
570.0
603.0
646.0
686.0
720.0
763.0
804.0
839.0
871.0
897.0
914.0
924.0
927.0
925.0
919.0
908.0
895.0
878.0
860.0
837.0
815.0
789.0
759.0
729.0
702.0
670.0
647.0
632.0
611.0
582.0
556.0
527.0
503.0
477.0
463.0
441.0
418.0
383.0
361.0
344.0
332.0
319.0
315.0
307.0
294.0
288.0
286.0
285.0
288.0
290.0
296.0
302.0
313.0
325.0
339.0
356.0
372.0
387.0
404.0
419.0
438.0
456.0
468.0
489.0
507.0
516.0
531.0
543.0
553.0
562.0
569.0
573.0
576.0
577.0
578.0
578.0
571.0
568.0
565.0
562.0
557.0
552.0
546.0
534.0
525.0
525.0
522.0
517.0
509.0
503.0
495.0
490.0
482.0
489.0
494.0
486.0
475.0
471.0
465.0
462.0
458.0
456.0
452.0
438.0
423.0
421.0
429.0
432.0
431.0
433.0
432.0
433.0
437.0
438.0
438.0
442.0
431.0
430.0
430.0
433.0
434.0
436.0
434.0
437.0
439.0
441.0
448.0
455.0
458.0
461.0
464.0
467.0
469.0
472.0
473.0
475.0
482.0
484.0
487.0
491.0
499.0
510.0
527.0
550.0
584.0
618.0
647.0
686.0
730.0
773.0
815.0
851.0
885.0
909.0
924.0
942.0
959.0
960.0
956.0
944.0
932.0
914.0
895.0
873.0
856.0
824.0
788.0
756.0
728.0
699.0
671.0
642.0
616.0
586.0
555.0
525.0
506.0
484.0
463.0
440.0
422.0
402.0
391.0
376.0
362.0
351.0
335.0
323.0
315.0
307.0
301.0
296.0
292.0
293.0
295.0
300.0
305.0
311.0
320.0
330.0
343.0
359.0
370.0
389.0
407.0
420.0
438.0
457.0
472.0
488.0
501.0
514.0
523.0
533.0
540.0
546.0
547.0
552.0
554.0
556.0
556.0
556.0
554.0
547.0
542.0
551.0
549.0
544.0
536.0
531.0
522.0
517.0
508.0
508.0
501.0
485.0
474.0
468.0
461.0
457.0
451.0
447.0
442.0
432.0
427.0
422.0
424.0
428.0
427.0
426.0
424.0
423.0
426.0
427.0
427.0
428.0
426.0
422.0
422.0
423.0
425.0
427.0
425.0
438.0
448.0
450.0
458.0
461.0
464.0
464.0
466.0
467.0
469.0
458.0
455.0
458.0
459.0
469.0
491.0
515.0
547.0
581.0
623.0
664.0
716.0
761.0
806.0
843.0
875.0
900.0
921.0
933.0
942.0
943.0
935.0
938.0
938.0
923.0
906.0
883.0
861.0
835.0
808.0
782.0
758.0
717.0
678.0
646.0
618.0
590.0
564.0
537.0
512.0
484.0
456.0
431.0
411.0
391.0
373.0
369.0
358.0
345.0
332.0
331.0
323.0
315.0
311.0
307.0
303.0
289.0
286.0
289.0
294.0
293.0
301.0
314.0
324.0
350.0
368.0
387.0
403.0
422.0
437.0
457.0
475.0
490.0
501.0
503.0
510.0
520.0
525.0
532.0
535.0
536.0
534.0
544.0
550.0
556.0
553.0
549.0
543.0
539.0
532.0
527.0
524.0
517.0
503.0
492.0
484.0
479.0
474.0
470.0
475.0
473.0
471.0
464.0
458.0
453.0
449.0
445.0
441.0
438.0
427.0
423.0
413.0
409.0
408.0
408.0
409.0
409.0
410.0
430.0
432.0
433.0
435.0
436.0
440.0
441.0
445.0
432.0
433.0
437.0
441.0
442.0
448.0
451.0
463.0
473.0
493.0
512.0
539.0
569.0
609.0
651.0
697.0
743.0
786.0
826.0
862.0
896.0
927.0
946.0
957.0
959.0
958.0
952.0
942.0
927.0
921.0
900.0
875.0
846.0
819.0
790.0
761.0
730.0
699.0
668.0
625.0
604.0
582.0
556.0
529.0
504.0
479.0
455.0
433.0
414.0
401.0
373.0
347.0
330.0
315.0
303.0
293.0
286.0
279.0
274.0
265.0
266.0
277.0
288.0
295.0
305.0
314.0
328.0
340.0
356.0
377.0
397.0
402.0
414.0
428.0
446.0
460.0
475.0
487.0
501.0
503.0
511.0
526.0
536.0
540.0
545.0
546.0
547.0
545.0
545.0
543.0
544.0
532.0
527.0
520.0
516.0
509.0
505.0
501.0
498.0
490.0
486.0
480.0
474.0
469.0
463.0
458.0
456.0
450.0
443.0
443.0
437.0
434.0
431.0
429.0
427.0
425.0
420.0
419.0
417.0
414.0
411.0
420.0
421.0
424.0
423.0
426.0
426.0
429.0
432.0
442.0
441.0
434.0
429.0
429.0
428.0
430.0
429.0
431.0
427.0
422.0
421.0
432.0
436.0
441.0
443.0
447.0
448.0
453.0
455.0
466.0
475.0
477.0
484.0
500.0
520.0
547.0
578.0
621.0
663.0
703.0
748.0
794.0
838.0
877.0
910.0
937.0
958.0
967.0
972.0
972.0
964.0
959.0
956.0
940.0
919.0
892.0
863.0
832.0
800.0
774.0
746.0
707.0
664.0
628.0
597.0
566.0
538.0
509.0
484.0
450.0
427.0
409.0
390.0
369.0
351.0
333.0
319.0
305.0
303.0
302.0
301.0
288.0
284.0
281.0
283.0
286.0
293.0
300.0
316.0
321.0
327.0
345.0
364.0
382.0
402.0
419.0
437.0
453.0
457.0
470.0
484.0
492.0
503.0
512.0
520.0
527.0
534.0
538.0
540.0
539.0
545.0
548.0
547.0
544.0
540.0
536.0
530.0
525.0
527.0
523.0
513.0
503.0
496.0
491.0
484.0
480.0
474.0
469.0
455.0
449.0
440.0
442.0
439.0
437.0
432.0
429.0
426.0
431.0
430.0
431.0
433.0
429.0
425.0
426.0
426.0
428.0
428.0
430.0
432.0
434.0
436.0
439.0
439.0
441.0
442.0
445.0
446.0
443.0
446.0
450.0
451.0
454.0
455.0
458.0
459.0
460.0
461.0
473.0
472.0
477.0
473.0
474.0
476.0
478.0
480.0
482.0
484.0
476.0
477.0
478.0
492.0
508.0
528.0
553.0
586.0
621.0
663.0
706.0
758.0
807.0
850.0
887.0
922.0
948.0
967.0
978.0
984.0
982.0
972.0
957.0
940.0
926.0
907.0
885.0
862.0
834.0
807.0
777.0
747.0
719.0
688.0
646.0
612.0
577.0
547.0
516.0
489.0
459.0
434.0
403.0
381.0
370.0
356.0
337.0
320.0
302.0
288.0
274.0
265.0
265.0
263.0
250.0
245.0
246.0
252.0
261.0
272.0
285.0
301.0
310.0
324.0
355.0
379.0
402.0
424.0
446.0
466.0
486.0
503.0
531.0
546.0
548.0
553.0
561.0
565.0
570.0
572.0
575.0
574.0
564.0
560.0
566.0
564.0
563.0
558.0
554.0
547.0
542.0
535.0
538.0
530.0
517.0
506.0
499.0
490.0
484.0
477.0
473.0
465.0
453.0
451.0
456.0
453.0
452.0
448.0
445.0
441.0
439.0
446.0
450.0
443.0
434.0
430.0
428.0
428.0
428.0
428.0
429.0
421.0
415.0
421.0
425.0
428.0
429.0
431.0
433.0
437.0
440.0
451.0
458.0
460.0
459.0
462.0
464.0
467.0
468.0
470.0
470.0
463.0
458.0
458.0
465.0
473.0
481.0
495.0
511.0
536.0
568.0
605.0
645.0
693.0
732.0
777.0
818.0
859.0
893.0
924.0
941.0
957.0
965.0
965.0
969.0
965.0
952.0
937.0
916.0
894.0
868.0
840.0
824.0
797.0
756.0
723.0
691.0
660.0
627.0
597.0
567.0
539.0
497.0
468.0
446.0
423.0
401.0
379.0
360.0
341.0
330.0
316.0
302.0
294.0
280.0
271.0
265.0
260.0
259.0
260.0
260.0
269.0
279.0
291.0
305.0
318.0
336.0
352.0
371.0
388.0
406.0
419.0
439.0
450.0
468.0
488.0
507.0
520.0
533.0
542.0
552.0
563.0
570.0
572.0
578.0
574.0
573.0
571.0
570.0
566.0
563.0
556.0
555.0
549.0
541.0
532.0
526.0
517.0
511.0
505.0
500.0
490.0
480.0
473.0
475.0
473.0
467.0
461.0
455.0
449.0
443.0
437.0
435.0
434.0
423.0
418.0
416.0
417.0
416.0
418.0
425.0
430.0
428.0
431.0
431.0
433.0
433.0
435.0
435.0
439.0
433.0
433.0
433.0
433.0
434.0
443.0
444.0
447.0
448.0
451.0
454.0
464.0
483.0
509.0
533.0
560.0
594.0
637.0
681.0
730.0
783.0
832.0
866.0
899.0
926.0
947.0
961.0
969.0
972.0
970.0
956.0
943.0
926.0
906.0
888.0
869.0
844.0
818.0
787.0
756.0
723.0
689.0
661.0
632.0
597.0
562.0
531.0
501.0
474.0
447.0
423.0
400.0
375.0
351.0
343.0
329.0
316.0
301.0
291.0
280.0
274.0
268.0
280.0
281.0
274.0
274.0
281.0
289.0
301.0
313.0
328.0
342.0
345.0
358.0
397.0
424.0
444.0
459.0
475.0
488.0
507.0
517.0
535.0
544.0
532.0
527.0
531.0
534.0
540.0
542.0
539.0
539.0
534.0
531.0
539.0
538.0
535.0
529.0
523.0
516.0
510.0
503.0
498.0
494.0
477.0
467.0
459.0
455.0
449.0
445.0
440.0
439.0
439.0
433.0
430.0
429.0
427.0
426.0
424.0
424.0
423.0
422.0
416.0
417.0
425.0
431.0
431.0
433.0
433.0
436.0
435.0
437.0
444.0
450.0
440.0
438.0
437.0
440.0
442.0
446.0
451.0
457.0
453.0
462.0
474.0
494.0
518.0
548.0
582.0
622.0
667.0
717.0
763.0
809.0
851.0
887.0
916.0
940.0
955.0
963.0
960.0
959.0
952.0
941.0
923.0
903.0
879.0
853.0
826.0
797.0
766.0
738.0
705.0
668.0
636.0
603.0
573.0
542.0
513.0
484.0
459.0
423.0
399.0
386.0
369.0
352.0
337.0
321.0
310.0
298.0
290.0
292.0
291.0
280.0
278.0
277.0
281.0
285.0
294.0
303.0
316.0
319.0
333.0
345.0
368.0
392.0
412.0
428.0
445.0
458.0
473.0
484.0
507.0
519.0
524.0
523.0
529.0
534.0
540.0
543.0
551.0
553.0
542.0
540.0
538.0
534.0
530.0
524.0
520.0
515.0
504.0
498.0
492.0
484.0
489.0
494.0
491.0
485.0
478.0
472.0
465.0
458.0
457.0
456.0
440.0
427.0
421.0
420.0
417.0
418.0
424.0
428.0
426.0
425.0
423.0
425.0
424.0
427.0
427.0
430.0
423.0
426.0
423.0
426.0
443.0
451.0
453.0
455.0
456.0
457.0
457.0
459.0
473.0
477.0
462.0
459.0
459.0
464.0
468.0
478.0
492.0
512.0
521.0
551.0
591.0
634.0
679.0
725.0
771.0
816.0
856.0
892.0
921.0
943.0
961.0
973.0
976.0
973.0
964.0
949.0
937.0
919.0
894.0
869.0
832.0
794.0
760.0
725.0
693.0
658.0
620.0
583.0
552.0
516.0
489.0
469.0
446.0
421.0
398.0
375.0
357.0
337.0
323.0
311.0
301.0
281.0
274.0
268.0
267.0
264.0
271.0
280.0
290.0
293.0
302.0
311.0
324.0
337.0
354.0
370.0
385.0
393.0
408.0
433.0
460.0
476.0
490.0
500.0
510.0
517.0
525.0
539.0
549.0
545.0
540.0
542.0
544.0
546.0
547.0
547.0
544.0
534.0
525.0
530.0
528.0
521.0
514.0
508.0
500.0
494.0
487.0
495.0
502.0
487.0
477.0
472.0
465.0
461.0
456.0
453.0
449.0
434.0
417.0
415.0
427.0
432.0
431.0
432.0
430.0
432.0
430.0
431.0
433.0
434.0
419.0
418.0
417.0
420.0
421.0
425.0
427.0
432.0
430.0
440.0
446.0
452.0
455.0
458.0
460.0
462.0
463.0
475.0
487.0
491.0
489.0
489.0
489.0
490.0
492.0
493.0
497.0
495.0
495.0
503.0
524.0
549.0
582.0
618.0
661.0
706.0
754.0
799.0
848.0
883.0
915.0
941.0
961.0
972.0
978.0
975.0
972.0
957.0
944.0
924.0
904.0
877.0
851.0
820.0
790.0
558.0
528.0
495.0
467.0
439.0
416.0
391.0
378.0
361.0
331.0
309.0
295.0
281.0
271.0
260.0
253.0
247.0
239.0
235.0
254.0
264.0
275.0
288.0
302.0
319.0
337.0
356.0
383.0
405.0
410.0
426.0
443.0
461.0
476.0
493.0
507.0
521.0
523.0
531.0
542.0
550.0
553.0
557.0
558.0
558.0
555.0
562.0
566.0
565.0
554.0
549.0
543.0
538.0
531.0
526.0
518.0
504.0
487.0
487.0
487.0
483.0
475.0
470.0
462.0
458.0
453.0
457.0
458.0
451.0
439.0
436.0
432.0
432.0
430.0
430.0
427.0
419.0
412.0
423.0
425.0
426.0
427.0
428.0
429.0
430.0
432.0
444.0
447.0
440.0
439.0
441.0
443.0
445.0
448.0
450.0
454.0
446.0
449.0
450.0
459.0
471.0
478.0
480.0
484.0
485.0
488.0
489.0
495.0
496.0
495.0
487.0
490.0
495.0
506.0
520.0
541.0
564.0
592.0
631.0
677.0
720.0
766.0
807.0
849.0
885.0
919.0
948.0
971.0
977.0
978.0
974.0
970.0
958.0
945.0
924.0
902.0
870.0
840.0
815.0
792.0
760.0
727.0
692.0
659.0
626.0
594.0
571.0
544.0
509.0
473.0
444.0
418.0
393.0
371.0
351.0
331.0
305.0
284.0
283.0
279.0
272.0
265.0
261.0
258.0
259.0
261.0
273.0
282.0
284.0
289.0
303.0
319.0
338.0
356.0
378.0
398.0
418.0
435.0
459.0
476.0
494.0
507.0
521.0
531.0
541.0
547.0
553.0
556.0
555.0
555.0
559.0
559.0
560.0
559.0
559.0
555.0
550.0
545.0
544.0
547.0
542.0
533.0
524.0
515.0
507.0
498.0
490.0
487.0
478.0
461.0
452.0
447.0
443.0
439.0
435.0
432.0
428.0
420.0
417.0
424.0
429.0
430.0
429.0
429.0
428.0
428.0
429.0
437.0
438.0
432.0
426.0
426.0
427.0
430.0
431.0
435.0
435.0
432.0
432.0
449.0
456.0
463.0
464.0
467.0
467.0
470.0
470.0
480.0
482.0
473.0
468.0
469.0
472.0
479.0
484.0
495.0
508.0
521.0
544.0
582.0
617.0
658.0
700.0
746.0
790.0
835.0
879.0
914.0
943.0
959.0
973.0
982.0
984.0
981.0
973.0
960.0
938.0
917.0
891.0
866.0
838.0
807.0
776.0
749.0
716.0
681.0
648.0
623.0
592.0
557.0
525.0
494.0
465.0
430.0
404.0
380.0
360.0
331.0
321.0
312.0
301.0
289.0
281.0
273.0
269.0
265.0
272.0
273.0
275.0
274.0
282.0
292.0
306.0
320.0
337.0
354.0
369.0
389.0
406.0
422.0
441.0
457.0
474.0
487.0
502.0
512.0
521.0
525.0
533.0
546.0
552.0
556.0
558.0
557.0
557.0
555.0
554.0
554.0
550.0
538.0
530.0
524.0
517.0
511.0
504.0
498.0
489.0
478.0
479.0
479.0
473.0
468.0
461.0
456.0
449.0
445.0
445.0
443.0
429.0
427.0
423.0
422.0
420.0
420.0
417.0
418.0
411.0
418.0
418.0
414.0
412.0
413.0
413.0
416.0
418.0
422.0
424.0
419.0
430.0
441.0
446.0
452.0
453.0
456.0
457.0
466.0
471.0
474.0
470.0
467.0
466.0
468.0
470.0
476.0
481.0
484.0
504.0
525.0
545.0
575.0
611.0
652.0
698.0
745.0
793.0
838.0
870.0
903.0
937.0
961.0
979.0
987.0
990.0
985.0
976.0
961.0
944.0
923.0
896.0
874.0
847.0
822.0
791.0
756.0
722.0
686.0
653.0
619.0
590.0
549.0
516.0
477.0
447.0
420.0
398.0
387.0
372.0
358.0
341.0
325.0
314.0
303.0
296.0
289.0
285.0
269.0
266.0
258.0
261.0
270.0
281.0
291.0
304.0
317.0
333.0
349.0
367.0
399.0
419.0
429.0
442.0
454.0
467.0
479.0
491.0
501.0
509.0
503.0
507.0
518.0
525.0
531.0
534.0
536.0
535.0
535.0
540.0
542.0
538.0
533.0
526.0
522.0
515.0
510.0
504.0
498.0
483.0
473.0
470.0
472.0
466.0
462.0
454.0
450.0
445.0
443.0
445.0
447.0
442.0
435.0
430.0
430.0
427.0
427.0
424.0
424.0
421.0
418.0
412.0
412.0
412.0
414.0
415.0
418.0
418.0
421.0
417.0
421.0
431.0
438.0
440.0
441.0
443.0
445.0
448.0
452.0
455.0
458.0
453.0
457.0
466.0
470.0
473.0
476.0
478.0
479.0
480.0
484.0
491.0
491.0
496.0
509.0
531.0
558.0
592.0
631.0
675.0
717.0
764.0
811.0
858.0
896.0
930.0
954.0
975.0
986.0
994.0
1001.0
1000.0
986.0
970.0
950.0
929.0
902.0
874.0
841.0
808.0
763.0
724.0
698.0
666.0
630.0
597.0
564.0
533.0
505.0
478.0
451.0
429.0
395.0
371.0
350.0
332.0
315.0
301.0
292.0
283.0
275.0
272.0
269.0
268.0
269.0
273.0
279.0
286.0
290.0
300.0
314.0
324.0
344.0
362.0
381.0
400.0
426.0
444.0
460.0
478.0
499.0
511.0
518.0
524.0
532.0
536.0
534.0
535.0
540.0
538.0
534.0
534.0
550.0
550.0
549.0
544.0
542.0
535.0
531.0
524.0
526.0
519.0
498.0
487.0
482.0
477.0
472.0
465.0
461.0
456.0
444.0
438.0
443.0
444.0
441.0
437.0
433.0
430.0
426.0
423.0
430.0
429.0
421.0
415.0
413.0
414.0
414.0
415.0
417.0
419.0
411.0
411.0
418.0
424.0
426.0
429.0
430.0
434.0
436.0
448.0
454.0
459.0
454.0
456.0
458.0
462.0
465.0
470.0
473.0
470.0
469.0
484.0
494.0
500.0
500.0
503.0
503.0
505.0
503.0
508.0
509.0
501.0
493.0
497.0
503.0
517.0
533.0
559.0
588.0
621.0
658.0
710.0
761.0
809.0
853.0
893.0
927.0
955.0
974.0
990.0
998.0
996.0
987.0
977.0
962.0
945.0
923.0
898.0
871.0
838.0
804.0
766.0
737.0
718.0
685.0
648.0
611.0
576.0
543.0
511.0
488.0
460.0
430.0
388.0
363.0
343.0
327.0
310.0
298.0
290.0
281.0
272.0
266.0
260.0
262.0
263.0
269.0
274.0
284.0
289.0
297.0
310.0
334.0
353.0
371.0
386.0
404.0
420.0
439.0
455.0
476.0
492.0
499.0
506.0
517.0
525.0
533.0
538.0
549.0
552.0
550.0
551.0
552.0
551.0
550.0
548.0
545.0
540.0
529.0
526.0
521.0
512.0
507.0
500.0
493.0
486.0
479.0
474.0
469.0
467.0
462.0
461.0
455.0
451.0
446.0
443.0
438.0
434.0
432.0
423.0
418.0
415.0
411.0
411.0
410.0
412.0
413.0
416.0
414.0
416.0
416.0
416.0
424.0
432.0
433.0
434.0
433.0
435.0
434.0
436.0
441.0
447.0
441.0
440.0
442.0
447.0
451.0
456.0
464.0
470.0
468.0
472.0
473.0
477.0
478.0
481.0
484.0
487.0
491.0
495.0
497.0
499.0
502.0
504.0
506.0
507.0
507.0
508.0
503.0
504.0
507.0
520.0
532.0
546.0
567.0
593.0
625.0
661.0
703.0
750.0
800.0
834.0
875.0
910.0
942.0
966.0
987.0
998.0
1003.0
996.0
986.0
978.0
971.0
953.0
932.0
904.0
875.0
842.0
810.0
785.0
753.0
711.0
669.0
630.0
596.0
562.0
532.0
501.0
474.0
435.0
409.0
392.0
374.0
353.0
335.0
317.0
302.0
288.0
278.0
277.0
272.0
263.0
258.0
259.0
263.0
269.0
277.0
287.0
298.0
303.0
317.0
332.0
356.0
379.0
399.0
420.0
439.0
458.0
480.0
499.0
513.0
530.0
536.0
543.0
548.0
554.0
558.0
564.0
568.0
574.0
572.0
573.0
571.0
569.0
564.0
561.0
554.0
549.0
533.0
522.0
513.0
503.0
501.0
500.0
493.0
488.0
480.0
474.0
473.0
468.0
467.0
462.0
448.0
438.0
431.0
427.0
423.0
422.0
413.0
412.0
406.0
410.0
412.0
413.0
413.0
414.0
414.0
415.0
415.0
422.0
427.0
423.0
421.0
422.0
425.0
426.0
429.0
431.0
436.0
436.0
441.0
445.0
450.0
452.0
456.0
458.0
461.0
464.0
468.0
468.0
468.0
478.0
494.0
498.0
502.0
504.0
507.0
507.0
510.0
514.0
520.0
512.0
502.0
500.0
502.0
503.0
505.0
505.0
508.0
505.0
506.0
517.0
536.0
552.0
575.0
602.0
637.0
676.0
719.0
767.0
814.0
854.0
887.0
923.0
951.0
975.0
991.0
948.0
927.0
899.0
869.0
837.0
808.0
775.0
743.0
708.0
664.0
622.0
585.0
552.0
519.0
490.0
456.0
430.0
402.0
382.0
379.0
366.0
350.0
336.0
322.0
311.0
299.0
291.0
287.0
283.0
261.0
258.0
258.0
265.0
271.0
283.0
294.0
310.0
318.0
344.0
366.0
388.0
404.0
421.0
436.0
452.0
466.0
480.0
493.0
496.0
501.0
519.0
529.0
537.0
542.0
546.0
548.0
558.0
559.0
557.0
557.0
544.0
539.0
533.0
530.0
525.0
521.0
514.0
509.0
503.0
495.0
488.0
482.0
474.0
468.0
460.0
454.0
440.0
435.0
436.0
435.0
431.0
429.0
426.0
424.0
420.0
419.0
425.0
426.0
417.0
414.0
410.0
410.0
407.0
408.0
407.0
410.0
400.0
402.0
400.0
410.0
421.0
428.0
430.0
433.0
435.0
437.0
438.0
453.0
456.0
454.0
448.0
450.0
452.0
456.0
459.0
467.0
472.0
465.0
468.0
471.0
474.0
478.0
482.0
486.0
490.0
501.0
509.0
512.0
519.0
521.0
524.0
523.0
523.0
522.0
521.0
509.0
503.0
500.0
495.0
493.0
498.0
501.0
509.0
518.0
534.0
553.0
584.0
624.0
665.0
706.0
748.0
791.0
839.0
880.0
919.0
951.0
975.0
986.0
999.0
1009.0
1014.0
1009.0
1000.0
984.0
968.0
944.0
920.0
902.0
874.0
835.0
798.0
762.0
727.0
690.0
655.0
620.0
586.0
540.0
507.0
480.0
454.0
427.0
403.0
379.0
360.0
341.0
335.0
330.0
319.0
304.0
293.0
285.0
278.0
276.0
272.0
272.0
263.0
258.0
275.0
288.0
299.0
314.0
328.0
346.0
363.0
383.0
408.0
429.0
431.0
449.0
463.0
478.0
490.0
504.0
513.0
525.0
536.0
546.0
552.0
556.0
558.0
562.0
562.0
563.0
560.0
558.0
542.0
535.0
536.0
532.0
524.0
517.0
509.0
502.0
494.0
488.0
481.0
475.0
467.0
461.0
455.0
449.0
441.0
435.0
429.0
424.0
425.0
423.0
413.0
413.0
412.0
412.0
412.0
412.0
413.0
412.0
409.0
409.0
409.0
405.0
405.0
404.0
407.0
409.0
413.0
415.0
416.0
416.0
426.0
432.0
438.0
440.0
444.0
444.0
447.0
447.0
459.0
461.0
462.0
459.0
461.0
462.0
465.0
466.0
469.0
470.0
465.0
465.0
466.0
477.0
487.0
490.0
493.0
496.0
500.0
509.0
515.0
520.0
526.0
518.0
515.0
515.0
517.0
517.0
517.0
511.0
519.0
516.0
515.0
514.0
514.0
517.0
522.0
533.0
549.0
575.0
599.0
635.0
674.0
720.0
769.0
820.0
865.0
909.0
942.0
970.0
986.0
1004.0
1013.0
1019.0
1013.0
1004.0
991.0
974.0
953.0
929.0
901.0
869.0
833.0
801.0
769.0
735.0
697.0
662.0
625.0
591.0
557.0
533.0
504.0
472.0
438.0
412.0
387.0
368.0
348.0
333.0
317.0
298.0
282.0
278.0
272.0
267.0
262.0
260.0
258.0
258.0
260.0
280.0
290.0
294.0
302.0
314.0
329.0
345.0
363.0
381.0
400.0
404.0
420.0
449.0
470.0
485.0
499.0
512.0
524.0
533.0
541.0
550.0
557.0
547.0
546.0
546.0
548.0
545.0
544.0
539.0
537.0
527.0
531.0
531.0
528.0
520.0
515.0
507.0
501.0
493.0
496.0
502.0
490.0
475.0
467.0
459.0
454.0
447.0
444.0
438.0
428.0
411.0
408.0
412.0
423.0
424.0
424.0
422.0
421.0
418.0
421.0
420.0
418.0
410.0
400.0
397.0
398.0
400.0
402.0
405.0
402.0
404.0
421.0
427.0
430.0
432.0
433.0
436.0
438.0
442.0
444.0
449.0
437.0
439.0
446.0
452.0
455.0
461.0
465.0
469.0
471.0
486.0
495.0
501.0
499.0
503.0
505.0
509.0
510.0
520.0
525.0
519.0
515.0
515.0
513.0
514.0
511.0
511.0
510.0
509.0
504.0
504.0
502.0
511.0
517.0
529.0
546.0
570.0
599.0
632.0
676.0
726.0
774.0
817.0
864.0
903.0
942.0
969.0
994.0
1008.0
1014.0
1013.0
1018.0
1013.0
1000.0
987.0
979.0
962.0
935.0
906.0
882.0
849.0
808.0
769.0
732.0
694.0
644.0
603.0
568.0
535.0
496.0
463.0
441.0
415.0
391.0
368.0
351.0
333.0
319.0
303.0
296.0
290.0
276.0
267.0
263.0
257.0
256.0
254.0
258.0
261.0
265.0
269.0
287.0
313.0
332.0
347.0
365.0
381.0
399.0
415.0
433.0
449.0
459.0
460.0
472.0
493.0
508.0
519.0
529.0
536.0
542.0
559.0
564.0
566.0
565.0
556.0
551.0
548.0
544.0
541.0
536.0
518.0
510.0
520.0
517.0
513.0
506.0
500.0
493.0
488.0
480.0
477.0
471.0
451.0
440.0
435.0
428.0
425.0
419.0
423.0
420.0
415.0
414.0
415.0
413.0
414.0
413.0
414.0
412.0
409.0
407.0
408.0
406.0
410.0
411.0
413.0
414.0
417.0
418.0
418.0
419.0
423.0
422.0
431.0
435.0
439.0
439.0
440.0
441.0
444.0
447.0
456.0
459.0
455.0
455.0
459.0
463.0
470.0
474.0
480.0
484.0
487.0
490.0
493.0
496.0
499.0
504.0
505.0
509.0
507.0
510.0
505.0
507.0
515.0
522.0
521.0
521.0
519.0
522.0
525.0
535.0
554.0
581.0
599.0
626.0
662.0
708.0
754.0
804.0
850.0
893.0
925.0
951.0
975.0
995.0
1008.0
1013.0
1009.0
1001.0
987.0
977.0
960.0
940.0
911.0
883.0
848.0
815.0
780.0
747.0
712.0
674.0
636.0
612.0
591.0
562.0
531.0
501.0
473.0
446.0
419.0
399.0
377.0
353.0
323.0
304.0
289.0
277.0
266.0
257.0
251.0
241.0
239.0
232.0
234.0
240.0
252.0
260.0
274.0
286.0
302.0
318.0
345.0
364.0
385.0
403.0
419.0
436.0
456.0
473.0
492.0
505.0
512.0
531.0
551.0
561.0
571.0
575.0
580.0
581.0
583.0
586.0
590.0
582.0
572.0
565.0
560.0
553.0
546.0
538.0
531.0
523.0
514.0
500.0
492.0
485.0
479.0
473.0
468.0
462.0
456.0
446.0
443.0
451.0
448.0
443.0
438.0
434.0
431.0
429.0
428.0
427.0
421.0
408.0
407.0
413.0
413.0
413.0
410.0
410.0
408.0
407.0
413.0
418.0
416.0
414.0
415.0
419.0
421.0
426.0
432.0
438.0
433.0
438.0
440.0
445.0
447.0
452.0
454.0
459.0
467.0
477.0
481.0
490.0
493.0
497.0
499.0
503.0
505.0
508.0
502.0
503.0
504.0
499.0
500.0
503.0
506.0
511.0
517.0
526.0
537.0
551.0
575.0
614.0
652.0
693.0
737.0
784.0
830.0
872.0
915.0
947.0
977.0
988.0
1003.0
1010.0
1011.0
1005.0
996.0
984.0
966.0
948.0
925.0
900.0
870.0
842.0
812.0
779.0
746.0
709.0
680.0
645.0
615.0
579.0
546.0
509.0
479.0
449.0
425.0
401.0
376.0
355.0
337.0
332.0
332.0
321.0
311.0
300.0
292.0
283.0
277.0
275.0
277.0
264.0
254.0
255.0
263.0
272.0
285.0
298.0
315.0
329.0
343.0
367.0
390.0
410.0
429.0
445.0
461.0
477.0
491.0
513.0
532.0
540.0
544.0
550.0
554.0
560.0
562.0
564.0
564.0
554.0
544.0
550.0
548.0
546.0
541.0
537.0
532.0
528.0
520.0
519.0
519.0
504.0
493.0
487.0
479.0
472.0
464.0
459.0
452.0
443.0
430.0
431.0
430.0
429.0
424.0
422.0
419.0
417.0
413.0
418.0
419.0
418.0
413.0
411.0
410.0
411.0
410.0
412.0
412.0
411.0
410.0
406.0
408.0
412.0
415.0
418.0
421.0
425.0
430.0
431.0
443.0
453.0
458.0
463.0
467.0
472.0
475.0
477.0
488.0
494.0
488.0
488.0
491.0
491.0
494.0
495.0
502.0
509.0
514.0
532.0
556.0
579.0
615.0
653.0
697.0
741.0
788.0
831.0
874.0
904.0
936.0
961.0
979.0
991.0
1000.0
1000.0
998.0
988.0
975.0
955.0
935.0
915.0
890.0
858.0
827.0
791.0
757.0
721.0
694.0
663.0
629.0
596.0
563.0
531.0
502.0
473.0
448.0
423.0
394.0
378.0
361.0
336.0
319.0
306.0
295.0
287.0
279.0
273.0
267.0
256.0
252.0
266.0
271.0
276.0
281.0
289.0
297.0
309.0
322.0
345.0
364.0
376.0
390.0
407.0
422.0
439.0
453.0
